%YAML 1.1
%TAG !u! tag:unity3d.com,2011:
--- !u!114 &11400000
MonoBehaviour:
  m_ObjectHideFlags: 0
  m_CorrespondingSourceObject: {fileID: 0}
  m_PrefabInstance: {fileID: 0}
  m_PrefabAsset: {fileID: 0}
  m_GameObject: {fileID: 0}
  m_Enabled: 1
  m_EditorHideFlags: 0
  m_Script: {fileID: 11500000, guid: cded644dd98cd7a4d80fca903bbcd61b, type: 3}
  m_Name: Guards
  m_EditorClassIdentifier: 
  m_TeamName: Guards
  m_Color: {r: 1, g: 0, b: 0, a: 0}
  m_PaintMaterial: {fileID: 2100000, guid: f5a6c46d1f4dfe24cabbf80c8bc54c5e, type: 2}
